com/tajouri/todo/handlers/ErrorDto$ErrorDtoBuilder.class
com/tajouri/todo/dto/UserDto$UserDtoBuilder.class
com/tajouri/todo/dto/TodoDto$TodoDtoBuilder.class
com/tajouri/todo/dto/CategoryDto$CategoryDtoBuilder.class
